…
# A tibble: 2,360 x 10
   naics_code naics_name naics_level naics4_aitype naics6_code_07
   <chr>      <chr>            <dbl> <fct>         <chr>         
 1 <NA>       <NA>                NA <NA>          <NA>          
 2 11         Agricultu~           2 <NA>          <NA>          
 3 111        Crop Prod~           3 <NA>          <NA>          
 4 1111       Oilseed a~           4 <NA>          <NA>          
 5 11111      Soybean F~           5 <NA>          <NA>          
 6 111110     Soybean F~           6 <NA>          111110        
 7 11112      Oilseed (~           5 <NA>          <NA>          
 8 111120     Oilseed (~           6 <NA>          111120        
 9 11113      Dry Pea a~           5 <NA>          <NA>          
10 111130     Dry Pea a~           6 <NA>          111130        
# ... with 2,350 more rows, and 5 more variables:
#   naics6_code_12 <chr>, sector <chr>, supply_chain <dbl>,
#   traded <dbl>, BEST <lgl>
